2 - Combinational Logic/Full_Adder/transcript
# vsim full_adder_4bit_DUT -c -do "run -all" 
# Start time: 23:02:15 on Jul 11,2025
# Loading work.full_adder_4bit_DUT
# Loading work.full_adder_4bit_bh
# run -all
# a =  0	b =  0	cin = 0	sum = 0000	carry = 0
# a =  1	b =  0	cin = 0	sum = 0001	carry = 0
# a =  1	b =  1	cin = 0	sum = 0010	carry = 0
# a =  1	b =  1	cin = 1	sum = 0011	carry = 0
# a =  1	b =  1	cin = 0	sum = 0010	carry = 0
# a =  1	b =  2	cin = 0	sum = 0011	carry = 0
# a =  1	b =  2	cin = 1	sum = 0100	carry = 0
# a =  1	b =  2	cin = 0	sum = 0011	carry = 0
# a =  1	b =  3	cin = 0	sum = 0100	carry = 0
# a =  1	b =  3	cin = 1	sum = 0101	carry = 0
# a =  1	b =  3	cin = 0	sum = 0100	carry = 0
# a =  1	b =  4	cin = 0	sum = 0101	carry = 0
# a =  1	b =  4	cin = 1	sum = 0110	carry = 0
# a =  1	b =  4	cin = 0	sum = 0101	carry = 0
# a =  1	b =  5	cin = 0	sum = 0110	carry = 0
# a =  1	b =  5	cin = 1	sum = 0111	carry = 0
# a =  1	b =  5	cin = 0	sum = 0110	carry = 0
# a =  1	b =  6	cin = 0	sum = 0111	carry = 0
# a =  1	b =  6	cin = 1	sum = 1000	carry = 0
# a =  1	b =  6	cin = 0	sum = 0111	carry = 0
# a =  1	b =  7	cin = 0	sum = 1000	carry = 0
# a =  1	b =  7	cin = 1	sum = 1001	carry = 0
# a =  1	b =  7	cin = 0	sum = 1000	carry = 0
# a =  1	b =  8	cin = 0	sum = 1001	carry = 0
# a =  1	b =  8	cin = 1	sum = 1010	carry = 0
# a =  1	b =  8	cin = 0	sum = 1001	carry = 0
# a =  1	b =  9	cin = 0	sum = 1010	carry = 0
# a =  1	b =  9	cin = 1	sum = 1011	carry = 0
# a =  1	b =  9	cin = 0	sum = 1010	carry = 0
# a =  1	b = 10	cin = 0	sum = 1011	carry = 0
# a =  1	b = 10	cin = 1	sum = 1100	carry = 0
# a =  1	b = 10	cin = 0	sum = 1011	carry = 0
# a =  1	b = 11	cin = 0	sum = 1100	carry = 0
# a =  1	b = 11	cin = 1	sum = 1101	carry = 0
# a =  1	b = 11	cin = 0	sum = 1100	carry = 0
# a =  1	b = 12	cin = 0	sum = 1101	carry = 0
# a =  1	b = 12	cin = 1	sum = 1110	carry = 0
# a =  1	b = 12	cin = 0	sum = 1101	carry = 0
# a =  1	b = 13	cin = 0	sum = 1110	carry = 0
# a =  1	b = 13	cin = 1	sum = 1111	carry = 0
# a =  1	b = 13	cin = 0	sum = 1110	carry = 0
# a =  1	b = 14	cin = 0	sum = 1111	carry = 0
# a =  1	b = 14	cin = 1	sum = 0000	carry = 1
# a =  1	b = 14	cin = 0	sum = 1111	carry = 0
# a =  1	b = 15	cin = 0	sum = 0000	carry = 1
# a =  1	b = 15	cin = 1	sum = 0001	carry = 1
# a =  1	b = 15	cin = 0	sum = 0000	carry = 1
# a =  1	b =  0	cin = 0	sum = 0001	carry = 0
# a =  1	b =  0	cin = 1	sum = 0010	carry = 0
# a =  1	b =  0	cin = 0	sum = 0001	carry = 0
# a =  2	b =  0	cin = 0	sum = 0010	carry = 0
# a =  2	b =  1	cin = 0	sum = 0011	carry = 0
# a =  2	b =  1	cin = 1	sum = 0100	carry = 0
# a =  2	b =  1	cin = 0	sum = 0011	carry = 0
# a =  2	b =  2	cin = 0	sum = 0100	carry = 0
# a =  2	b =  2	cin = 1	sum = 0101	carry = 0
# a =  2	b =  2	cin = 0	sum = 0100	carry = 0
# a =  2	b =  3	cin = 0	sum = 0101	carry = 0
# a =  2	b =  3	cin = 1	sum = 0110	carry = 0
# a =  2	b =  3	cin = 0	sum = 0101	carry = 0
# a =  2	b =  4	cin = 0	sum = 0110	carry = 0
# a =  2	b =  4	cin = 1	sum = 0111	carry = 0
# a =  2	b =  4	cin = 0	sum = 0110	carry = 0
# a =  2	b =  5	cin = 0	sum = 0111	carry = 0
# a =  2	b =  5	cin = 1	sum = 1000	carry = 0
# a =  2	b =  5	cin = 0	sum = 0111	carry = 0
# a =  2	b =  6	cin = 0	sum = 1000	carry = 0
# a =  2	b =  6	cin = 1	sum = 1001	carry = 0
# a =  2	b =  6	cin = 0	sum = 1000	carry = 0
# a =  2	b =  7	cin = 0	sum = 1001	carry = 0
# a =  2	b =  7	cin = 1	sum = 1010	carry = 0
# a =  2	b =  7	cin = 0	sum = 1001	carry = 0
# a =  2	b =  8	cin = 0	sum = 1010	carry = 0
# a =  2	b =  8	cin = 1	sum = 1011	carry = 0
# a =  2	b =  8	cin = 0	sum = 1010	carry = 0
# a =  2	b =  9	cin = 0	sum = 1011	carry = 0
# a =  2	b =  9	cin = 1	sum = 1100	carry = 0
# a =  2	b =  9	cin = 0	sum = 1011	carry = 0
# a =  2	b = 10	cin = 0	sum = 1100	carry = 0
# a =  2	b = 10	cin = 1	sum = 1101	carry = 0
# a =  2	b = 10	cin = 0	sum = 1100	carry = 0
# a =  2	b = 11	cin = 0	sum = 1101	carry = 0
# a =  2	b = 11	cin = 1	sum = 1110	carry = 0
# a =  2	b = 11	cin = 0	sum = 1101	carry = 0
# a =  2	b = 12	cin = 0	sum = 1110	carry = 0
# a =  2	b = 12	cin = 1	sum = 1111	carry = 0
# a =  2	b = 12	cin = 0	sum = 1110	carry = 0
# a =  2	b = 13	cin = 0	sum = 1111	carry = 0
# a =  2	b = 13	cin = 1	sum = 0000	carry = 1
# a =  2	b = 13	cin = 0	sum = 1111	carry = 0
# a =  2	b = 14	cin = 0	sum = 0000	carry = 1
# a =  2	b = 14	cin = 1	sum = 0001	carry = 1
# a =  2	b = 14	cin = 0	sum = 0000	carry = 1
# a =  2	b = 15	cin = 0	sum = 0001	carry = 1
# a =  2	b = 15	cin = 1	sum = 0010	carry = 1
# a =  2	b = 15	cin = 0	sum = 0001	carry = 1
# a =  2	b =  0	cin = 0	sum = 0010	carry = 0
# a =  2	b =  0	cin = 1	sum = 0011	carry = 0
# a =  2	b =  0	cin = 0	sum = 0010	carry = 0
# a =  3	b =  0	cin = 0	sum = 0011	carry = 0
# a =  3	b =  1	cin = 0	sum = 0100	carry = 0
# a =  3	b =  1	cin = 1	sum = 0101	carry = 0
# a =  3	b =  1	cin = 0	sum = 0100	carry = 0
# a =  3	b =  2	cin = 0	sum = 0101	carry = 0
# a =  3	b =  2	cin = 1	sum = 0110	carry = 0
# a =  3	b =  2	cin = 0	sum = 0101	carry = 0
# a =  3	b =  3	cin = 0	sum = 0110	carry = 0
# a =  3	b =  3	cin = 1	sum = 0111	carry = 0
# a =  3	b =  3	cin = 0	sum = 0110	carry = 0
# a =  3	b =  4	cin = 0	sum = 0111	carry = 0
# a =  3	b =  4	cin = 1	sum = 1000	carry = 0
# a =  3	b =  4	cin = 0	sum = 0111	carry = 0
# a =  3	b =  5	cin = 0	sum = 1000	carry = 0
# a =  3	b =  5	cin = 1	sum = 1001	carry = 0
# a =  3	b =  5	cin = 0	sum = 1000	carry = 0
# a =  3	b =  6	cin = 0	sum = 1001	carry = 0
# a =  3	b =  6	cin = 1	sum = 1010	carry = 0
# a =  3	b =  6	cin = 0	sum = 1001	carry = 0
# a =  3	b =  7	cin = 0	sum = 1010	carry = 0
# a =  3	b =  7	cin = 1	sum = 1011	carry = 0
# a =  3	b =  7	cin = 0	sum = 1010	carry = 0
# a =  3	b =  8	cin = 0	sum = 1011	carry = 0
# a =  3	b =  8	cin = 1	sum = 1100	carry = 0
# a =  3	b =  8	cin = 0	sum = 1011	carry = 0
# a =  3	b =  9	cin = 0	sum = 1100	carry = 0
# a =  3	b =  9	cin = 1	sum = 1101	carry = 0
# a =  3	b =  9	cin = 0	sum = 1100	carry = 0
# a =  3	b = 10	cin = 0	sum = 1101	carry = 0
# a =  3	b = 10	cin = 1	sum = 1110	carry = 0
# a =  3	b = 10	cin = 0	sum = 1101	carry = 0
# a =  3	b = 11	cin = 0	sum = 1110	carry = 0
# a =  3	b = 11	cin = 1	sum = 1111	carry = 0
# a =  3	b = 11	cin = 0	sum = 1110	carry = 0
# a =  3	b = 12	cin = 0	sum = 1111	carry = 0
# a =  3	b = 12	cin = 1	sum = 0000	carry = 1
# a =  3	b = 12	cin = 0	sum = 1111	carry = 0
# a =  3	b = 13	cin = 0	sum = 0000	carry = 1
# a =  3	b = 13	cin = 1	sum = 0001	carry = 1
# a =  3	b = 13	cin = 0	sum = 0000	carry = 1
# a =  3	b = 14	cin = 0	sum = 0001	carry = 1
# a =  3	b = 14	cin = 1	sum = 0010	carry = 1
# a =  3	b = 14	cin = 0	sum = 0001	carry = 1
# a =  3	b = 15	cin = 0	sum = 0010	carry = 1
# a =  3	b = 15	cin = 1	sum = 0011	carry = 1
# a =  3	b = 15	cin = 0	sum = 0010	carry = 1
# a =  3	b =  0	cin = 0	sum = 0011	carry = 0
# a =  3	b =  0	cin = 1	sum = 0100	carry = 0
# a =  3	b =  0	cin = 0	sum = 0011	carry = 0
# a =  4	b =  0	cin = 0	sum = 0100	carry = 0
# a =  4	b =  1	cin = 0	sum = 0101	carry = 0
# a =  4	b =  1	cin = 1	sum = 0110	carry = 0
# a =  4	b =  1	cin = 0	sum = 0101	carry = 0
# a =  4	b =  2	cin = 0	sum = 0110	carry = 0
# a =  4	b =  2	cin = 1	sum = 0111	carry = 0
# a =  4	b =  2	cin = 0	sum = 0110	carry = 0
# a =  4	b =  3	cin = 0	sum = 0111	carry = 0
# a =  4	b =  3	cin = 1	sum = 1000	carry = 0
# a =  4	b =  3	cin = 0	sum = 0111	carry = 0
# a =  4	b =  4	cin = 0	sum = 1000	carry = 0
# a =  4	b =  4	cin = 1	sum = 1001	carry = 0
# a =  4	b =  4	cin = 0	sum = 1000	carry = 0
# a =  4	b =  5	cin = 0	sum = 1001	carry = 0
# a =  4	b =  5	cin = 1	sum = 1010	carry = 0
# a =  4	b =  5	cin = 0	sum = 1001	carry = 0
# a =  4	b =  6	cin = 0	sum = 1010	carry = 0
# a =  4	b =  6	cin = 1	sum = 1011	carry = 0
# a =  4	b =  6	cin = 0	sum = 1010	carry = 0
# a =  4	b =  7	cin = 0	sum = 1011	carry = 0
# a =  4	b =  7	cin = 1	sum = 1100	carry = 0
# a =  4	b =  7	cin = 0	sum = 1011	carry = 0
# a =  4	b =  8	cin = 0	sum = 1100	carry = 0
# a =  4	b =  8	cin = 1	sum = 1101	carry = 0
# a =  4	b =  8	cin = 0	sum = 1100	carry = 0
# a =  4	b =  9	cin = 0	sum = 1101	carry = 0
# a =  4	b =  9	cin = 1	sum = 1110	carry = 0
# a =  4	b =  9	cin = 0	sum = 1101	carry = 0
# a =  4	b = 10	cin = 0	sum = 1110	carry = 0
# a =  4	b = 10	cin = 1	sum = 1111	carry = 0
# a =  4	b = 10	cin = 0	sum = 1110	carry = 0
# a =  4	b = 11	cin = 0	sum = 1111	carry = 0
# a =  4	b = 11	cin = 1	sum = 0000	carry = 1
# a =  4	b = 11	cin = 0	sum = 1111	carry = 0
# a =  4	b = 12	cin = 0	sum = 0000	carry = 1
# a =  4	b = 12	cin = 1	sum = 0001	carry = 1
# a =  4	b = 12	cin = 0	sum = 0000	carry = 1
# a =  4	b = 13	cin = 0	sum = 0001	carry = 1
# a =  4	b = 13	cin = 1	sum = 0010	carry = 1
# a =  4	b = 13	cin = 0	sum = 0001	carry = 1
# a =  4	b = 14	cin = 0	sum = 0010	carry = 1
# a =  4	b = 14	cin = 1	sum = 0011	carry = 1
# a =  4	b = 14	cin = 0	sum = 0010	carry = 1
# a =  4	b = 15	cin = 0	sum = 0011	carry = 1
# a =  4	b = 15	cin = 1	sum = 0100	carry = 1
# a =  4	b = 15	cin = 0	sum = 0011	carry = 1
# a =  4	b =  0	cin = 0	sum = 0100	carry = 0
# a =  4	b =  0	cin = 1	sum = 0101	carry = 0
# a =  4	b =  0	cin = 0	sum = 0100	carry = 0
# a =  5	b =  0	cin = 0	sum = 0101	carry = 0
# a =  5	b =  1	cin = 0	sum = 0110	carry = 0
# a =  5	b =  1	cin = 1	sum = 0111	carry = 0
# a =  5	b =  1	cin = 0	sum = 0110	carry = 0
# a =  5	b =  2	cin = 0	sum = 0111	carry = 0
# a =  5	b =  2	cin = 1	sum = 1000	carry = 0
# a =  5	b =  2	cin = 0	sum = 0111	carry = 0
# a =  5	b =  3	cin = 0	sum = 1000	carry = 0
# a =  5	b =  3	cin = 1	sum = 1001	carry = 0
# a =  5	b =  3	cin = 0	sum = 1000	carry = 0
# a =  5	b =  4	cin = 0	sum = 1001	carry = 0
# a =  5	b =  4	cin = 1	sum = 1010	carry = 0
# a =  5	b =  4	cin = 0	sum = 1001	carry = 0
# a =  5	b =  5	cin = 0	sum = 1010	carry = 0
# a =  5	b =  5	cin = 1	sum = 1011	carry = 0
# a =  5	b =  5	cin = 0	sum = 1010	carry = 0
# a =  5	b =  6	cin = 0	sum = 1011	carry = 0
# a =  5	b =  6	cin = 1	sum = 1100	carry = 0
# a =  5	b =  6	cin = 0	sum = 1011	carry = 0
# a =  5	b =  7	cin = 0	sum = 1100	carry = 0
# a =  5	b =  7	cin = 1	sum = 1101	carry = 0
# a =  5	b =  7	cin = 0	sum = 1100	carry = 0
# a =  5	b =  8	cin = 0	sum = 1101	carry = 0
# a =  5	b =  8	cin = 1	sum = 1110	carry = 0
# a =  5	b =  8	cin = 0	sum = 1101	carry = 0
# a =  5	b =  9	cin = 0	sum = 1110	carry = 0
# a =  5	b =  9	cin = 1	sum = 1111	carry = 0
# a =  5	b =  9	cin = 0	sum = 1110	carry = 0
# a =  5	b = 10	cin = 0	sum = 1111	carry = 0
# a =  5	b = 10	cin = 1	sum = 0000	carry = 1
# a =  5	b = 10	cin = 0	sum = 1111	carry = 0
# a =  5	b = 11	cin = 0	sum = 0000	carry = 1
# a =  5	b = 11	cin = 1	sum = 0001	carry = 1
# a =  5	b = 11	cin = 0	sum = 0000	carry = 1
# a =  5	b = 12	cin = 0	sum = 0001	carry = 1
# a =  5	b = 12	cin = 1	sum = 0010	carry = 1
# a =  5	b = 12	cin = 0	sum = 0001	carry = 1
# a =  5	b = 13	cin = 0	sum = 0010	carry = 1
# a =  5	b = 13	cin = 1	sum = 0011	carry = 1
# a =  5	b = 13	cin = 0	sum = 0010	carry = 1
# a =  5	b = 14	cin = 0	sum = 0011	carry = 1
# a =  5	b = 14	cin = 1	sum = 0100	carry = 1
# a =  5	b = 14	cin = 0	sum = 0011	carry = 1
# a =  5	b = 15	cin = 0	sum = 0100	carry = 1
# a =  5	b = 15	cin = 1	sum = 0101	carry = 1
# a =  5	b = 15	cin = 0	sum = 0100	carry = 1
# a =  5	b =  0	cin = 0	sum = 0101	carry = 0
# a =  5	b =  0	cin = 1	sum = 0110	carry = 0
# a =  5	b =  0	cin = 0	sum = 0101	carry = 0
# a =  6	b =  0	cin = 0	sum = 0110	carry = 0
# a =  6	b =  1	cin = 0	sum = 0111	carry = 0
# a =  6	b =  1	cin = 1	sum = 1000	carry = 0
# a =  6	b =  1	cin = 0	sum = 0111	carry = 0
# a =  6	b =  2	cin = 0	sum = 1000	carry = 0
# a =  6	b =  2	cin = 1	sum = 1001	carry = 0
# a =  6	b =  2	cin = 0	sum = 1000	carry = 0
# a =  6	b =  3	cin = 0	sum = 1001	carry = 0
# a =  6	b =  3	cin = 1	sum = 1010	carry = 0
# a =  6	b =  3	cin = 0	sum = 1001	carry = 0
# a =  6	b =  4	cin = 0	sum = 1010	carry = 0
# a =  6	b =  4	cin = 1	sum = 1011	carry = 0
# a =  6	b =  4	cin = 0	sum = 1010	carry = 0
# a =  6	b =  5	cin = 0	sum = 1011	carry = 0
# a =  6	b =  5	cin = 1	sum = 1100	carry = 0
# a =  6	b =  5	cin = 0	sum = 1011	carry = 0
# a =  6	b =  6	cin = 0	sum = 1100	carry = 0
# a =  6	b =  6	cin = 1	sum = 1101	carry = 0
# a =  6	b =  6	cin = 0	sum = 1100	carry = 0
# a =  6	b =  7	cin = 0	sum = 1101	carry = 0
# a =  6	b =  7	cin = 1	sum = 1110	carry = 0
# a =  6	b =  7	cin = 0	sum = 1101	carry = 0
# a =  6	b =  8	cin = 0	sum = 1110	carry = 0
# a =  6	b =  8	cin = 1	sum = 1111	carry = 0
# a =  6	b =  8	cin = 0	sum = 1110	carry = 0
# a =  6	b =  9	cin = 0	sum = 1111	carry = 0
# a =  6	b =  9	cin = 1	sum = 0000	carry = 1
# a =  6	b =  9	cin = 0	sum = 1111	carry = 0
# a =  6	b = 10	cin = 0	sum = 0000	carry = 1
# a =  6	b = 10	cin = 1	sum = 0001	carry = 1
# a =  6	b = 10	cin = 0	sum = 0000	carry = 1
# a =  6	b = 11	cin = 0	sum = 0001	carry = 1
# a =  6	b = 11	cin = 1	sum = 0010	carry = 1
# a =  6	b = 11	cin = 0	sum = 0001	carry = 1
# a =  6	b = 12	cin = 0	sum = 0010	carry = 1
# a =  6	b = 12	cin = 1	sum = 0011	carry = 1
# a =  6	b = 12	cin = 0	sum = 0010	carry = 1
# a =  6	b = 13	cin = 0	sum = 0011	carry = 1
# a =  6	b = 13	cin = 1	sum = 0100	carry = 1
# a =  6	b = 13	cin = 0	sum = 0011	carry = 1
# a =  6	b = 14	cin = 0	sum = 0100	carry = 1
# a =  6	b = 14	cin = 1	sum = 0101	carry = 1
# a =  6	b = 14	cin = 0	sum = 0100	carry = 1
# a =  6	b = 15	cin = 0	sum = 0101	carry = 1
# a =  6	b = 15	cin = 1	sum = 0110	carry = 1
# a =  6	b = 15	cin = 0	sum = 0101	carry = 1
# a =  6	b =  0	cin = 0	sum = 0110	carry = 0
# a =  6	b =  0	cin = 1	sum = 0111	carry = 0
# a =  6	b =  0	cin = 0	sum = 0110	carry = 0
# a =  7	b =  0	cin = 0	sum = 0111	carry = 0
# a =  7	b =  1	cin = 0	sum = 1000	carry = 0
# a =  7	b =  1	cin = 1	sum = 1001	carry = 0
# a =  7	b =  1	cin = 0	sum = 1000	carry = 0
# a =  7	b =  2	cin = 0	sum = 1001	carry = 0
# a =  7	b =  2	cin = 1	sum = 1010	carry = 0
# a =  7	b =  2	cin = 0	sum = 1001	carry = 0
# a =  7	b =  3	cin = 0	sum = 1010	carry = 0
# a =  7	b =  3	cin = 1	sum = 1011	carry = 0
# a =  7	b =  3	cin = 0	sum = 1010	carry = 0
# a =  7	b =  4	cin = 0	sum = 1011	carry = 0
# a =  7	b =  4	cin = 1	sum = 1100	carry = 0
# a =  7	b =  4	cin = 0	sum = 1011	carry = 0
# a =  7	b =  5	cin = 0	sum = 1100	carry = 0
# a =  7	b =  5	cin = 1	sum = 1101	carry = 0
# a =  7	b =  5	cin = 0	sum = 1100	carry = 0
# a =  7	b =  6	cin = 0	sum = 1101	carry = 0
# a =  7	b =  6	cin = 1	sum = 1110	carry = 0
# a =  7	b =  6	cin = 0	sum = 1101	carry = 0
# a =  7	b =  7	cin = 0	sum = 1110	carry = 0
# a =  7	b =  7	cin = 1	sum = 1111	carry = 0
# a =  7	b =  7	cin = 0	sum = 1110	carry = 0
# a =  7	b =  8	cin = 0	sum = 1111	carry = 0
# a =  7	b =  8	cin = 1	sum = 0000	carry = 1
# a =  7	b =  8	cin = 0	sum = 1111	carry = 0
# a =  7	b =  9	cin = 0	sum = 0000	carry = 1
# a =  7	b =  9	cin = 1	sum = 0001	carry = 1
# a =  7	b =  9	cin = 0	sum = 0000	carry = 1
# a =  7	b = 10	cin = 0	sum = 0001	carry = 1
# a =  7	b = 10	cin = 1	sum = 0010	carry = 1
# a =  7	b = 10	cin = 0	sum = 0001	carry = 1
# a =  7	b = 11	cin = 0	sum = 0010	carry = 1
# a =  7	b = 11	cin = 1	sum = 0011	carry = 1
# a =  7	b = 11	cin = 0	sum = 0010	carry = 1
# a =  7	b = 12	cin = 0	sum = 0011	carry = 1
# a =  7	b = 12	cin = 1	sum = 0100	carry = 1
# a =  7	b = 12	cin = 0	sum = 0011	carry = 1
# a =  7	b = 13	cin = 0	sum = 0100	carry = 1
# a =  7	b = 13	cin = 1	sum = 0101	carry = 1
# a =  7	b = 13	cin = 0	sum = 0100	carry = 1
# a =  7	b = 14	cin = 0	sum = 0101	carry = 1
# a =  7	b = 14	cin = 1	sum = 0110	carry = 1
# a =  7	b = 14	cin = 0	sum = 0101	carry = 1
# a =  7	b = 15	cin = 0	sum = 0110	carry = 1
# a =  7	b = 15	cin = 1	sum = 0111	carry = 1
# a =  7	b = 15	cin = 0	sum = 0110	carry = 1
# a =  7	b =  0	cin = 0	sum = 0111	carry = 0
# a =  7	b =  0	cin = 1	sum = 1000	carry = 0
# a =  7	b =  0	cin = 0	sum = 0111	carry = 0
# a =  8	b =  0	cin = 0	sum = 1000	carry = 0
# a =  8	b =  1	cin = 0	sum = 1001	carry = 0
# a =  8	b =  1	cin = 1	sum = 1010	carry = 0
# a =  8	b =  1	cin = 0	sum = 1001	carry = 0
# a =  8	b =  2	cin = 0	sum = 1010	carry = 0
# a =  8	b =  2	cin = 1	sum = 1011	carry = 0
# a =  8	b =  2	cin = 0	sum = 1010	carry = 0
# a =  8	b =  3	cin = 0	sum = 1011	carry = 0
# a =  8	b =  3	cin = 1	sum = 1100	carry = 0
# a =  8	b =  3	cin = 0	sum = 1011	carry = 0
# a =  8	b =  4	cin = 0	sum = 1100	carry = 0
# a =  8	b =  4	cin = 1	sum = 1101	carry = 0
# a =  8	b =  4	cin = 0	sum = 1100	carry = 0
# a =  8	b =  5	cin = 0	sum = 1101	carry = 0
# a =  8	b =  5	cin = 1	sum = 1110	carry = 0
# a =  8	b =  5	cin = 0	sum = 1101	carry = 0
# a =  8	b =  6	cin = 0	sum = 1110	carry = 0
# a =  8	b =  6	cin = 1	sum = 1111	carry = 0
# a =  8	b =  6	cin = 0	sum = 1110	carry = 0
# a =  8	b =  7	cin = 0	sum = 1111	carry = 0
# a =  8	b =  7	cin = 1	sum = 0000	carry = 1
# a =  8	b =  7	cin = 0	sum = 1111	carry = 0
# a =  8	b =  8	cin = 0	sum = 0000	carry = 1
# a =  8	b =  8	cin = 1	sum = 0001	carry = 1
# a =  8	b =  8	cin = 0	sum = 0000	carry = 1
# a =  8	b =  9	cin = 0	sum = 0001	carry = 1
# a =  8	b =  9	cin = 1	sum = 0010	carry = 1
# a =  8	b =  9	cin = 0	sum = 0001	carry = 1
# a =  8	b = 10	cin = 0	sum = 0010	carry = 1
# a =  8	b = 10	cin = 1	sum = 0011	carry = 1
# a =  8	b = 10	cin = 0	sum = 0010	carry = 1
# a =  8	b = 11	cin = 0	sum = 0011	carry = 1
# a =  8	b = 11	cin = 1	sum = 0100	carry = 1
# a =  8	b = 11	cin = 0	sum = 0011	carry = 1
# a =  8	b = 12	cin = 0	sum = 0100	carry = 1
# a =  8	b = 12	cin = 1	sum = 0101	carry = 1
# a =  8	b = 12	cin = 0	sum = 0100	carry = 1
# a =  8	b = 13	cin = 0	sum = 0101	carry = 1
# a =  8	b = 13	cin = 1	sum = 0110	carry = 1
# a =  8	b = 13	cin = 0	sum = 0101	carry = 1
# a =  8	b = 14	cin = 0	sum = 0110	carry = 1
# a =  8	b = 14	cin = 1	sum = 0111	carry = 1
# a =  8	b = 14	cin = 0	sum = 0110	carry = 1
# a =  8	b = 15	cin = 0	sum = 0111	carry = 1
# a =  8	b = 15	cin = 1	sum = 1000	carry = 1
# a =  8	b = 15	cin = 0	sum = 0111	carry = 1
# a =  8	b =  0	cin = 0	sum = 1000	carry = 0
# a =  8	b =  0	cin = 1	sum = 1001	carry = 0
# a =  8	b =  0	cin = 0	sum = 1000	carry = 0
# a =  9	b =  0	cin = 0	sum = 1001	carry = 0
# a =  9	b =  1	cin = 0	sum = 1010	carry = 0
# a =  9	b =  1	cin = 1	sum = 1011	carry = 0
# a =  9	b =  1	cin = 0	sum = 1010	carry = 0
# a =  9	b =  2	cin = 0	sum = 1011	carry = 0
# a =  9	b =  2	cin = 1	sum = 1100	carry = 0
# a =  9	b =  2	cin = 0	sum = 1011	carry = 0
# a =  9	b =  3	cin = 0	sum = 1100	carry = 0
# a =  9	b =  3	cin = 1	sum = 1101	carry = 0
# a =  9	b =  3	cin = 0	sum = 1100	carry = 0
# a =  9	b =  4	cin = 0	sum = 1101	carry = 0
# a =  9	b =  4	cin = 1	sum = 1110	carry = 0
# a =  9	b =  4	cin = 0	sum = 1101	carry = 0
# a =  9	b =  5	cin = 0	sum = 1110	carry = 0
# a =  9	b =  5	cin = 1	sum = 1111	carry = 0
# a =  9	b =  5	cin = 0	sum = 1110	carry = 0
# a =  9	b =  6	cin = 0	sum = 1111	carry = 0
# a =  9	b =  6	cin = 1	sum = 0000	carry = 1
# a =  9	b =  6	cin = 0	sum = 1111	carry = 0
# a =  9	b =  7	cin = 0	sum = 0000	carry = 1
# a =  9	b =  7	cin = 1	sum = 0001	carry = 1
# a =  9	b =  7	cin = 0	sum = 0000	carry = 1
# a =  9	b =  8	cin = 0	sum = 0001	carry = 1
# a =  9	b =  8	cin = 1	sum = 0010	carry = 1
# a =  9	b =  8	cin = 0	sum = 0001	carry = 1
# a =  9	b =  9	cin = 0	sum = 0010	carry = 1
# a =  9	b =  9	cin = 1	sum = 0011	carry = 1
# a =  9	b =  9	cin = 0	sum = 0010	carry = 1
# a =  9	b = 10	cin = 0	sum = 0011	carry = 1
# a =  9	b = 10	cin = 1	sum = 0100	carry = 1
# a =  9	b = 10	cin = 0	sum = 0011	carry = 1
# a =  9	b = 11	cin = 0	sum = 0100	carry = 1
# a =  9	b = 11	cin = 1	sum = 0101	carry = 1
# a =  9	b = 11	cin = 0	sum = 0100	carry = 1
# a =  9	b = 12	cin = 0	sum = 0101	carry = 1
# a =  9	b = 12	cin = 1	sum = 0110	carry = 1
# a =  9	b = 12	cin = 0	sum = 0101	carry = 1
# a =  9	b = 13	cin = 0	sum = 0110	carry = 1
# a =  9	b = 13	cin = 1	sum = 0111	carry = 1
# a =  9	b = 13	cin = 0	sum = 0110	carry = 1
# a =  9	b = 14	cin = 0	sum = 0111	carry = 1
# a =  9	b = 14	cin = 1	sum = 1000	carry = 1
# a =  9	b = 14	cin = 0	sum = 0111	carry = 1
# a =  9	b = 15	cin = 0	sum = 1000	carry = 1
# a =  9	b = 15	cin = 1	sum = 1001	carry = 1
# a =  9	b = 15	cin = 0	sum = 1000	carry = 1
# a =  9	b =  0	cin = 0	sum = 1001	carry = 0
# a =  9	b =  0	cin = 1	sum = 1010	carry = 0
# a =  9	b =  0	cin = 0	sum = 1001	carry = 0
# a = 10	b =  0	cin = 0	sum = 1010	carry = 0
# a = 10	b =  1	cin = 0	sum = 1011	carry = 0
# a = 10	b =  1	cin = 1	sum = 1100	carry = 0
# a = 10	b =  1	cin = 0	sum = 1011	carry = 0
# a = 10	b =  2	cin = 0	sum = 1100	carry = 0
# a = 10	b =  2	cin = 1	sum = 1101	carry = 0
# a = 10	b =  2	cin = 0	sum = 1100	carry = 0
# a = 10	b =  3	cin = 0	sum = 1101	carry = 0
# a = 10	b =  3	cin = 1	sum = 1110	carry = 0
# a = 10	b =  3	cin = 0	sum = 1101	carry = 0
# a = 10	b =  4	cin = 0	sum = 1110	carry = 0
# a = 10	b =  4	cin = 1	sum = 1111	carry = 0
# a = 10	b =  4	cin = 0	sum = 1110	carry = 0
# a = 10	b =  5	cin = 0	sum = 1111	carry = 0
# a = 10	b =  5	cin = 1	sum = 0000	carry = 1
# a = 10	b =  5	cin = 0	sum = 1111	carry = 0
# a = 10	b =  6	cin = 0	sum = 0000	carry = 1
# a = 10	b =  6	cin = 1	sum = 0001	carry = 1
# a = 10	b =  6	cin = 0	sum = 0000	carry = 1
# a = 10	b =  7	cin = 0	sum = 0001	carry = 1
# a = 10	b =  7	cin = 1	sum = 0010	carry = 1
# a = 10	b =  7	cin = 0	sum = 0001	carry = 1
# a = 10	b =  8	cin = 0	sum = 0010	carry = 1
# a = 10	b =  8	cin = 1	sum = 0011	carry = 1
# a = 10	b =  8	cin = 0	sum = 0010	carry = 1
# a = 10	b =  9	cin = 0	sum = 0011	carry = 1
# a = 10	b =  9	cin = 1	sum = 0100	carry = 1
# a = 10	b =  9	cin = 0	sum = 0011	carry = 1
# a = 10	b = 10	cin = 0	sum = 0100	carry = 1
# a = 10	b = 10	cin = 1	sum = 0101	carry = 1
# a = 10	b = 10	cin = 0	sum = 0100	carry = 1
# a = 10	b = 11	cin = 0	sum = 0101	carry = 1
# a = 10	b = 11	cin = 1	sum = 0110	carry = 1
# a = 10	b = 11	cin = 0	sum = 0101	carry = 1
# a = 10	b = 12	cin = 0	sum = 0110	carry = 1
# a = 10	b = 12	cin = 1	sum = 0111	carry = 1
# a = 10	b = 12	cin = 0	sum = 0110	carry = 1
# a = 10	b = 13	cin = 0	sum = 0111	carry = 1
# a = 10	b = 13	cin = 1	sum = 1000	carry = 1
# a = 10	b = 13	cin = 0	sum = 0111	carry = 1
# a = 10	b = 14	cin = 0	sum = 1000	carry = 1
# a = 10	b = 14	cin = 1	sum = 1001	carry = 1
# a = 10	b = 14	cin = 0	sum = 1000	carry = 1
# a = 10	b = 15	cin = 0	sum = 1001	carry = 1
# a = 10	b = 15	cin = 1	sum = 1010	carry = 1
# a = 10	b = 15	cin = 0	sum = 1001	carry = 1
# a = 10	b =  0	cin = 0	sum = 1010	carry = 0
# a = 10	b =  0	cin = 1	sum = 1011	carry = 0
# a = 10	b =  0	cin = 0	sum = 1010	carry = 0
# a = 11	b =  0	cin = 0	sum = 1011	carry = 0
# a = 11	b =  1	cin = 0	sum = 1100	carry = 0
# a = 11	b =  1	cin = 1	sum = 1101	carry = 0
# a = 11	b =  1	cin = 0	sum = 1100	carry = 0
# a = 11	b =  2	cin = 0	sum = 1101	carry = 0
